[
  {
    "startTime": "07:30",
    "duration": "01:30",
    "topic": "Registration & Breakfast",
    "type": "talk",
    "img": "/img/ic-happy.svg",
    "description": "Registration & Breakfast"
  },
  {
    "startTime": "09:00",
    "duration": "00:30",
    "topic": "Opening Keynote with Evan You",
    "type": "talk",
    "img": "https://cfp.connectevents.io/system/avatars/1107/large/499550.jpeg?1515104079",
    "author": "Evan You",
    "authorInfo": "Creator of Vue.js ",
    "description": "Opening Keynote with Evan You",
    "social": [
      {
        "twitter": "https://twitter.com/youyuxi"
      }
    ]
  },
  {
    "startTime": "09:30",
    "duration": "00:30",
    "topic": "How Vite Changes the Game for Vue and Web Developers",
    "type": "talk",
    "img": "https://cfp.connectevents.io/system/avatars/2468/large/alexk.jpg?1583149614",
    "author": "Alex Kyriakidis",
    "authorInfo": "Vue Core Member and creator of VueSchool.io and The Vue.js Master Class",
    "description": "Vite is a new build tool, created to make web developers of any kind happier and more productive. It was created by Evan You and significantly improves the frontend development experience. ",
    "social": [
      {
        "twitter": "https://twitter.com/hootlex"
      }
    ]
  },
  {
    "startTime": "10:00",
    "duration": "00:30",
    "topic": "Break 1.0",
    "type": "talk",
    "img": "/img/ic-happy.svg",
    "description": "Break 1.0"
  },
  {
    "startTime": "10:30",
    "duration": "00:30",
    "topic": "Unit Testing Vue Apps: Tips, Tricks, and Best Practices",
    "type": "talk",
    "img": "https://cfp.connectevents.io/system/avatars/3438/large/1612295240586.jpeg?1650476323",
    "author": "Beth Qiang",
    "authorInfo": "Beth Qiang is a front-end focused fullstack engineer at Lob. She cares deeply about diversity, equity, inclusion, and making the web accessible to everyone. In her free time, she loves rock climbing, skiing, hiking, knitting, hanging out with her dog, and trying new-to-her breweries around town.",
    "description": "Unit testing is something you've been told you should do, but have you ever wondered why? Or what you should test? Or how to test what you should test? In this talk, we'll break down the answers to all of these questions. We'll also talk about how to set up an easy-to-use framework for any Vue app so that your tests most accurately represent how a user would interact with your platform.",
    "social": [
      {
        "twitter": "https://twitter.com/@bethqiang"
      }
    ]
  },
  {
    "startTime": "11:00",
    "duration": "00:30",
    "topic": "Create a Custom Component Library with Vue!",
    "type": "talk",
    "img": "https://cfp.connectevents.io/system/avatars/3447/large/PXL_20220422_182512107_2.jpg?1652104194",
    "author": "Paige Kelley",
    "authorInfo": "I am a frontend developer located in Denver Colorado, originally from New Orleans. I have been a developer for almost 7 years. When Im not writing code some of my other hobbies include Muay Thai, snowboarding and painting. ",
    "description": "This talk will include a step by step guide on how to setup your own custom component library published to NPM with the VueCli and Tailwind in under 20 minutes.",
    "social": [
      {
        "twitter": "https://twitter.com/paigeckelley"
      }
    ]
  },
  {
    "startTime": "11:30",
    "duration": "00:30",
    "topic": "Improving Pagespeed Performance with Vue 3",
    "type": "talk",
    "img": "https://cfp.connectevents.io/system/avatars/3419/large/krennic_profile.png?1644961225",
    "author": "Tom Dale",
    "authorInfo": "Head of Customer Success at imgix with a focus on improving media optimization for headless sites.  Recently created a new Headless Tutorial website called Let's Go Headless. Emphasis on using Nuxt. Father of 2 little ones, 3rd on the way. ",
    "description": "We all want to have a high performing website and provide a great experience to our users.  There can be so many items that can cause your website to perform poorly. I will share some great tips to improve your image performance using Vue 3 and pass Google's Core Web Vitals.  ",
    "social": [
      {
        "twitter": "https://twitter.com/@letsgoheadless"
      }
    ]
  },
  {
    "startTime": "12:10",
    "duration": "01:00",
    "topic": "Lunch 1.0",
    "type": "talk",
    "img": "/img/ic-happy.svg",
    "description": "Lunch 1.0"
  },
  {
    "startTime": "13:10",
    "duration": "01:00",
    "topic": "Lightning Talks 1.0",
    "type": "talk",
    "img": "/img/ic-happy.svg",
    "description": "Lightning Talks 1.0"
  },
  {
    "startTime": "14:10",
    "duration": "00:30",
    "topic": "Break 1.1",
    "type": "talk",
    "img": "/img/ic-happy.svg",
    "description": "Break 1.1"
  },
  {
    "startTime": "14:40",
    "duration": "00:40",
    "topic": "Building Accessible Components",
    "type": "talk",
    "img": "https://cfp.connectevents.io/system/avatars/1677/large/me.jpeg?1571403580",
    "author": "Homer Gaines",
    "authorInfo": "Interactive Designer + Front-end Developer + Certified Accessibility Professional. \r\n\r\nI focus primarily on accessible front-end development and clean, intuitive designs that enable independence. ",
    "description": "This talk will provide guidance for understanding how to think and approach building accessible components.",
    "social": [
      {
        "twitter": "https://twitter.com/xirclebox"
      }
    ]
  },
  {
    "startTime": "15:20",
    "duration": "00:30",
    "topic": "What's coming in Nuxt3",
    "type": "talk",
    "img": "https://cfp.connectevents.io/system/avatars/2391/large/Screen_Shot_2022-05-09_at_11.45.46_AM.png?1652111172",
    "author": "Dan Vega",
    "authorInfo": "I’m a Husband, Father, Spring Developer Advocate, and maker of things from Cleveland Ohio. I have a real passion for learning and taking what I have learned and teaching that to others. ",
    "description": "What's coming in Nuxt3",
    "social": [
      {
        "twitter": "https://twitter.com/therealdanvega"
      }
    ]
  },
  {
    "startTime": "15:50",
    "duration": "00:30",
    "topic": "Component Testing with Vite, Vue, and Cypress",
    "type": "talk",
    "img": "https://cfp.connectevents.io/system/avatars/2776/large/jessica-sachs-square-min.jpeg?1652104122",
    "author": "Jessica Sachs",
    "authorInfo": "Jessica Sachs is a Vue Test Utils maintainer, a tech lead at Cypress, the architect of the Cypress Component Test Runner, and a Vue Mastery instructor. With a background in Quality Assurance, she brings the theory and practices from QA over to Frontend Development.",
    "description": "Cypress 10 releases Component Testing: this talk shows off a development workflow where getting meaningful test coverage is ALMOST an afterthought. Learn about the new release and what’s coming in the future.",
    "social": [
      {
        "twitter": "https://twitter.com/_jessicasachs"
      }
    ]
  },
  {
    "startTime": "16:20",
    "duration": "00:30",
    "topic": "Break 1.2",
    "type": "talk",
    "img": "/img/ic-happy.svg",
    "description": "Break 1.2"
  },
  {
    "startTime": "16:50",
    "duration": "00:30",
    "topic": "Nuxt.js and Chrome",
    "type": "talk",
    "img": "https://cfp.connectevents.io/system/avatars/3424/large/kara.jpeg?1645470466",
    "author": "Kara ERickson",
    "authorInfo": "Kara Erickson is the TL of the Chrome Aurora project and a senior software engineer at Google. As part of Aurora, she’s passionate about improving developer experience and loading performance across the web. Before joining Chrome, she used to work on the Angular framework (in particular, the Ivy runtime).  In her free time, she enjoys building keyboards, sketching, and reading fantasy novels.",
    "description": "A small team of Google Chrome engineers are working full-time to improve both the user and developer experiences of open-source frameworks. This talk will dive into why Google is investing in this space as well as cover some high-impact features we’ve shipped that have improved Nuxt.js’ default experience.",
    "social": [
      {
        "twitter": "https://twitter.com/karaforthewin"
      }
    ]
  },
  {
    "startTime": "17:20",
    "duration": "00:30",
    "topic": "From Vuex to Pinia",
    "type": "talk",
    "img": "https://cfp.connectevents.io/system/avatars/1685/large/Headshot.png?1606506236",
    "author": "Adam Jahr",
    "authorInfo": "Adam Jahr is co-founder and instructor at VueMastery.com, the ultimate learning resource for Vue.js developers.",
    "description": "Curious about Vue 3's new lightweight state management library, Pinia? This talk explores how to use Pinia as we compare it against the Vuex paradigm we are already familiar with, allowing us to transition gracefully into this next evolution of state management in Vue.",
    "social": [
      {
        "twitter": "https://twitter.com/adamjahr"
      }
    ]
  },
  {
    "startTime": "17:50",
    "duration": "01:30",
    "topic": "Conference Reception and VueTrivia!",
    "type": "talk",
    "img": "/img/ic-happy.svg",
    "description": "Conference Reception and VueTrivia!"
  }
]